form	lemma	pos	source	a	b	c
						
						
voilà	VOILÀ	Vvc				
jusques	JUSQUE	S				
						
# Amalgames						
enl	EN+LE	S+Da				
on	EN+LE	S+Da				
ou	EN+LE	S+Da				
au	EN+LE	S+Da				
es	EN+LE	S+Da				
ès	EN+LE	S+Da				
aus	EN+LE	S+Da				
aux	EN+LE	S+Da				
						
el	IL	Pp				
						
# Expérimental (peut poser problème pour période récente)						
eu	EN+LE	S+Da				
						
# Trouvé dans l'Encyclopédie du 19e siècle, et absent du lexique						
royne	REINE	Nc				
autonomase	AUTONOMASE	Nc				
cueur	CŒUR	Nc				
enoyer	ENOYER	Vvc				
aer	AIR	Nc				
rechef	RECHEF	Nc				
pié	PIED	Nc				
						
# TEMPORAIRE TODO à vérifier						
parce	PARCE	S				
'	'	Fo				
/	/	Xs				
						
quelqu	QUELQUE	Di				
quelqu	QUELQUE	Rg				
quelqu'	QUELQUE	Di				
quelqu'	QUELQUE	Rg				
entr	ENTRE	S				
entr	ENTRER	Vvc				
entr'	ENTRE	S				
entr'	ENTRER	Vvc				
lorsqu	LORSQUE	Cs				
lorsqu'	LORSQUE	Cs				
						
fig	FIGURE	Xa				
fig.	FIGURE	Xa				
pag	PAGE	Xa				
pag.	PAGE	Xa				
acad.	ACADÉMIE	Xa				
S.	SAINT	Xa				
P.	PÈRE	Xa				
liv.	LIVRE	Xa				
dictionn.	DICTIONNAIRE	Xa				
histor.	HISTORIQUE	Ag				
						
d'	DE	Np				
						
# Modif 2015-01-03						
(	(	Fo				
)	)	Fo				
[	[	Fo				
]	]	Fo				
-	-	Fo				
"	"	Fo				
«	«	Fo				
»	»	Fo				
						
# Complément 2014-10-31						
# Pontuation						
!	!	Fs				
?	?	Fs				
.	.	Fs				
,	,	Fw				
:	:	Fw				
;	;	Fw				
...	...	Fs				
...	...	Fw				
						
ier.	PREMIER	Mo				
ier.	PREMIER	Mo				
viiie.	HUITIÈME	Mo				
						
# Mots composés						
aujourd'hui	AUJOURD'HUI	Rg				
aujourd'huy	AUJOURD'HUI	Rg				
aujourd'hvi	AUJOURD'HUI	Rg				
aujourd'hvy	AUJOURD'HUI	Rg				
aujourdhui	AUJOURD'HUI	Rg				
aujourdhuy	AUJOURD'HUI	Rg				
aujourdui	AUJOURD'HUI	Rg				
aujourduy	AUJOURD'HUI	Rg				
aujovrd'hui	AUJOURD'HUI	Rg				
aujovrd'huy	AUJOURD'HUI	Rg				
aujovrd'hvi	AUJOURD'HUI	Rg				
aujovrd'hvy	AUJOURD'HUI	Rg				
avjourd'hui	AUJOURD'HUI	Rg				
avjourd'huy	AUJOURD'HUI	Rg				
avjourd'hvi	AUJOURD'HUI	Rg				
avjourd'hvy	AUJOURD'HUI	Rg				
avjourdhui	AUJOURD'HUI	Rg				
avjourdhuy	AUJOURD'HUI	Rg				
avjourdui	AUJOURD'HUI	Rg				
avjourduy	AUJOURD'HUI	Rg				
avjovrd'hui	AUJOURD'HUI	Rg				
avjovrd'huy	AUJOURD'HUI	Rg				
avjovrd'hvi	AUJOURD'HUI	Rg				
avjovrd'hvy	AUJOURD'HUI	Rg				
						
						
madame	MADAME	Nc				
mademoisele	MADEMOISELLE	Nc				
mademoiselle	MADEMOISELLE	Nc				
mademoisèle	MADEMOISELLE	Nc				
mademoiséle	MADEMOISELLE	Nc				
madames	MADAME	Nc				
mesdames	MADAME	Nc				
mademoiseles	MADEMOISELLE	Nc				
mademoiselles	MADEMOISELLE	Nc				
mademoisèles	MADEMOISELLE	Nc				
mademoiséles	MADEMOISELLE	Nc				
mesdemoiseles	MADEMOISELLE	Nc				
mesdemoiselles	MADEMOISELLE	Nc				
mesdemoisèles	MADEMOISELLE	Nc				
mesdemoiséles	MADEMOISELLE	Nc				
me.	MADAME	Xa				
mes.	MADAME	Xa				
mlle.	MADEMOISELLE	Xa				
melles.	MADEMOISELLE	Xa				
						
# Symboles						
@	@	Xs				
%	%	Xs				
£	£	Xs				
€	€	Xs				
$	$	Xs				
µ	µ	Xs				
§	§	Xs				
*	*	Xs				
						
# Ponctuation						
[	[	Fo				
]	]	Fo				
(	(	Fo				
)	)	Fo				
«	«	Fo				
»	»	Fo				
—	—	Fo				
						
1°	1	Mo				
2°	2	Mo				
3°	3	Mo				
4°	4	Mo				
5°	5	Mo				
6°	6	Mo				
7°	7	Mo				
8°	8	Mo				
9°	9	Mo				
10°	10	Mo				
						
1°.	1	Mo				
2°.	2	Mo				
3°.	3	Mo				
4°.	4	Mo				
5°.	5	Mo				
6°.	6	Mo				
7°.	7	Mo				
8°.	8	Mo				
9°.	9	Mo				
10°.	10	Mo				
						
m	MONSIEUR	Xa				
m.	MONSIEUR	Xa				
mme	MADAME	Xa				
mme.	MADAME	Xa				
mlle	MADEMOISELLE	Xa				
mlle.	MADEMOISELLE	Xa				
ch.	CHAPITRE	Xa				
chap.	CHAPITRE	Xa				
						
&	ET	Cc				
						
# Consonnes intercallées						
t	T	Xi				
l	L	Xi				
l'	L'	Xi				
						
						
mien	MIEN	As				
mienne	MIEN	As				
miens	MIEN	As				
miennes	MIEN	As				
mien	MIEN	Ps				
mienne	MIEN	Ps				
miens	MIEN	Ps				
miennes	MIEN	Ps				
tien	TIEN	As				
tienne	TIEN	As				
tiens	TIEN	As				
tiennes	TIEN	As				
tien	TIEN	Ps				
tienne	TIEN	Ps				
tiens	TIEN	Ps				
tiennes	TIEN	Ps				
sien	SIEN	As				
sienne	SIEN	As				
siens	SIEN	As				
siennes	SIEN	As				
sien	SIEN	Ps				
sienne	SIEN	Ps				
siens	SIEN	Ps				
siennes	SIEN	Ps				
nôtre	NOTRE	As				
nostre	NOTRE	As				
nôtres	NOTRE	As				
nostres	NOTRE	As				
nôtre	NÔTRE	Ps				
nostre	NÔTRE	Ps				
nôtres	NÔTRE	Ps				
nostres	NÔTRE	Ps				
vôtre	VOTRE	As				
vostre	VOTRE	As				
vôtres	VOTRE	As				
vostres	VOTRE	As				
vôtre	VÔTRE	Ps				
vostre	VÔTRE	Ps				
vôtres	VÔTRE	Ps				
vostres	VÔTRE	Ps				
je	JE	Pp				
j'	JE	Pp				
me	JE	Pp				
m'	JE	Pp				
moi	JE	Pp				
moy	JE	Pp				
tu	TU	Pp				
te	TU	Pp				
t'	TU	Pp				
toi	TU	Pp				
toy	TU	Pp				
le	LE	Da				
la	LE	Da				
les	LE	Da				
l'	LE	Da				
le	IL	Pp				
la	IL	Pp				
les	IL	Pp				
l'	IL	Pp				
il	IL	Pp				
elle	IL	Pp				
lui	IL	Pp				
luy	IL	Pp				
se	SE	Pp				
soi	SE	Pp				
soy	SE	Pp				
s'	SE	Pp				
on	ON	Pp				
nous	NOUS	Pp				
vous	VOUS	Pp				
ils	ILS	Pp				
elles	ILS	Pp				
eux	ILS	Pp				
leur	ILS	Pp				
en	EN	Pp				
en	EN	S				
y	Y	Pp				
celui	CELUI	Pd				
celuy	CELUI	Pd				
celle	CELUI	Pd				
ceux	CELUI	Pd				
celles	CELUI	Pd				
ce	CE	Pd				
ce	CE	Dd				
c'	CE	Pd				
ça	ÇA	Pd				
ceci
cecy	CECI	Pd				
cela	CELA	Pd				
leur
leurs	LEUR	Ps				
leur
leurs	LEUR	Ds					
un 	UN	Dn				
une 	UN	Dn				
un 	UN	Mo				
une 	UN	Mo				
au	À+LE	S+Da				
aux	À+LE	S+Da				
des	UN	Dn				
des	DE+LE	S+Da				
des	DU	Dp				
de	DE  	S				
de	UN	Dn				
de	DE  	Di				
de	DU	Dp				
d'	DE  	S				
d'	UN	Dn				
d'	DE  	Di				
du	DU	Dp				
du	DE+LE	S+Da				
quel	QUEL	Dt				
quelle	QUEL	Dt				
quels	QUEL	Dt				
quelles	QUEL	Dt				
quel	LEQUEL	Pr				
quelle	LEQUEL	Pr				
quels	LEQUEL	Pr				
quelles	LEQUEL	Pr				
quel	LEQUEL	Pt				
quelle	LEQUEL	Pt				
quels	LEQUEL	Pt				
quelles	LEQUEL	Pt				
ne	NE	Rp				
n'	NE	Rp				
quand	QUAND	Cs				
quand	QUAND	Rt				
comment	COMMENT	Rt				
pourquoi	POURQUOI	Rt				
mais 	MAIS	Cc				
ou	OU	Cc				
et	ET	Cc				
car	CAR	Cc				
or	OR	Cc				
or	OR	Rg				
au	À+LE	S+Da				
auquel	À+LEQUEL	S+Dr				
auxquels	À+LEQUEL	S+Dr				
auxquelles	À+LEQUEL	S+Dr				
ausquels	À+LEQUEL	S+Dr				
auquel	À+LEQUEL	S+Pr				
auxquels	À+LEQUEL	S+Pr				
auxquelles	À+LEQUEL	S+Pr				
ausquels	À+LEQUEL	S+Pr				
auquel	À+LEQUEL	S+Pt				
auxquels	À+LEQUEL	S+Pt				
auxquelles	À+LEQUEL	S+Pt				
ausquels	À+LEQUEL	S+Pt				
autre	AUTRE	Ag				
autres	AUTRE	Ag				
autre	AUTRE	Pi				
autres	AUTRE	Pi				
même	MÊME	Ag				
même	MÊME	Pi				
même	MÊME	Rg				
certain	CERTAIN	Ag				 
certaine	CERTAIN	Ag				 
certains	CERTAIN	Ag				 
certaines	CERTAIN	Ag				 
certain	CERTAIN	Pi				
certaine	CERTAIN	Pi				
certains	CERTAIN	Pi				
certaines	CERTAIN	Pi				
dernier	DERNIER	Ag				
dernière	DERNIER	Ag				
derniers	DERNIER	Ag				
dernières	DERNIER	Ag				
						
						
# Noms propres TODO à compléter						
Abalphat	ABALPHAT	Np				
Abariel	ABARIEL	Np				
Abassi	ABASSI	Np				
Abbeville	ABBEVILLE	Np				
Abbot	ABBOT	Np				
Abdalcader	ABDALCADER	Np				
Abdalla	ABDALLA	Np				
Abdallah	ABDALLAH	Np				
Aberdeen	ABERDEEN	Np				
Abisaig	ABISAIG	Np				
Ablancourt	ABLANCOURT	Np				
Ablis	ABLIS	Np				
Abou	ABOU	Np				
Abraham	ABRAHAM	Np				
Abruse	ABRUSE	Np				
Abudiacum	ABUDIACUM	Np				
Abulfeda	ABULFEDA	Np				
Abulféda	ABULFÉDA	Np				
Abydeens	ABYDEENS	Np				
Abyla	ABYLA	Np				
Abyssinie	ABYSSINIE	Np				
Acadie	ACADIE	Np				
Acapulco	ACAPULCO	Np				
Acarabouten	ACARABOUTEN	Np				
Acarapep	ACARAPEP	Np				
Acarnanie	ACARNANIE	Np				
Achaïe	ACHAÏE	Np				
Acheron	ACHERON	Np				
Achéron	ACHÉRON	Np				
Achille	ACHILLE	Np				
Achmet	ACHMET	Np				
Achorie	ACHORIE	Np				
Achridus	ACHRIDUS	Np				
Açores	AÇORES	Np				
Adam	ADAM	Np				
Admyrauld	ADMYRAULD	Np				
Adrane	ADRANE	Np				
Adrastie	ADRASTIE	Np				
Adrian	ADRIAN	Np				
Adour	ADOUR	Np				
Adriatique	ADRIATIQUE	Np				
Adrien	ADRIEN	Np				
Adriot	ADRIOT	Np				
Agamemnon	AGAMEMNON	Np				
Agathe	AGATHE	Np				
Agde	AGDE	Np				
Agen	AGEN	Np				
Aglaé	AGLAÉ	Np				
Agrigente	AGRIGENTE	Np				
Ain	AIN	Np				
Aix	AIX	Np				
Alain	ALAIN	Np				
Alaric	ALARIC	Np				
Albanie	ALBANIE	Np				
Albe	ALBE	Np				
Alberstadt	ALBERSTADT	Np				
Albion	ALBION	Np				
Albuquerque	ALBUQUERQUE	Np				
Alcibiade	ALCIBIADE	Np				
Alecsandre	ALECSANDRE	Np				
Alecto	ALECTO	Np				
Alençon	ALENÇON	Np				
Alexandrie	ALEXANDRIE	Np				
Alexia	ALEXIA	Np				
Alfred	ALFRED	Np				
Alienor	ALIENOR	Np				
Allobroges	ALLOBROGES	Np				
Alvarès	ALVARÈS	Np				
Amalthée	AMALTHÉE	Np				
Amaranthe	AMARANTHE	Np				
Ambigate	AMBIGATE	Np				
Amboine	AMBOINE	Np				
Amboise	AMBOISE	Np				
Ambroise	AMBROISE	Np				
Augustin	AUGUSTIN	Np				
Amman	AMMAN	Np				
Ammon	AMMON	Np				
Amor	AMOR	Np				
Amphipolis	AMPHIPOLIS	Np				
Amphitrite	AMPHITRITE	Np				
Saint	SAINT	Np				
Anacréon	ANACRÉON	Np				
Anaxagore	ANAXAGORE	Np				
Anaximandre	ANAXIMANDRE	Np				
Andalousie	ANDALOUSIE	Np				
Andes	ANDES	Np				
André	ANDRÉ	Np				
Andromède	ANDROMÈDE	Np				
Angers	ANGERS	Np				
Angola	ANGOLA	Np				
Angoulème	ANGOULÈME	Np				
Anjou	ANJOU	Np				
Annecy	ANNECY	Np				
Antilles	ANTILLES	Np				
Cannes	CANNES	Np				
